…
For extremely thorough variant annotation (e.g.  finding LoF variants, finding
frameshifts, etc.) see GEMINI, SNPeff, or Annovar.

It uses `GenomicRanges` for the overlap finding, but is designed to work with
the tidyverse. This is sort of the next iteration of my experimental
[gplyr](https://github.com/vsbuffalo/gplyr), with a narrower focus on simple
but correct annotation of variants.

```r
# Read in the GFF file. This is lazy in parsing the attributes column
# and extracts only a few key-values later (e.g. ID, parent, parent_type).
> gff <- read_gff('inst/data/dmel-all-r5.30.gff.gz')
> tgff <- gff %>% tidy_gff()  ## only keeps specified features
> tgff
# A tibble: 222,629 x 8
    chrom start   end strand feature                                 id
   <fctr> <int> <int>  <chr>  <fctr>                              <chr>
 1     2L  7529  9484      +    gene                        FBgn0031208
 2     2L  7529  8116      +    exon                      FBgn0031208:1
 3     2L  7680  8116      +     CDS              CDS_FBgn0031208:1_738
 4     2L  8117  8192      +  intron intron_FBgn0031208:1_FBgn0031208:2
 5     2L  8117  8192      +  intron intron_FBgn0031208:1_FBgn0031208:3
 6     2L  8193  9484      +    exon                      FBgn0031208:3
 7     2L  8193  8610      +     CDS              CDS_FBgn0031208:3_738
 8     2L  8193  8589      +     CDS              CDS_FBgn0031208:2_738
 9     2L  8193  8589      +    exon                      FBgn0031208:2
10     2L  8590  8667      +  intron intron_FBgn0031208:2_FBgn0031208:4
# ... with 222,619 more rows, and 2 more variables: parent <list>,
#   parent_type <chr>
```
…
